%YAML 1.1
%TAG !u! tag:unity3d.com,2011:
--- !u!1 &3321675975489598503
GameObject:
  m_ObjectHideFlags: 0
  m_CorrespondingSourceObject: {fileID: 0}
  m_PrefabInstance: {fileID: 0}
  m_PrefabAsset: {fileID: 0}
  serializedVersion: 6
  m_Component:
  - component: {fileID: 3321675975489598488}
  - component: {fileID: 3321675975489598489}
  m_Layer: 0
  m_Name: ChromosomeManager
  m_TagString: Untagged
  m_Icon: {fileID: 0}
  m_NavMeshLayer: 0
  m_StaticEditorFlags: 0
  m_IsActive: 1
--- !u!4 &3321675975489598488
Transform:
  m_ObjectHideFlags: 0
  m_CorrespondingSourceObject: {fileID: 0}
  m_PrefabInstance: {fileID: 0}
  m_PrefabAsset: {fileID: 0}
  m_GameObject: {fileID: 3321675975489598503}
  m_LocalRotation: {x: 0, y: 0, z: 0, w: 1}
  m_LocalPosition: {x: 0, y: 0, z: 0}
  m_LocalScale: {x: 1, y: 1, z: 1}
  m_Children: []
  m_Father: {fileID: 0}
  m_RootOrder: 0
  m_LocalEulerAnglesHint: {x: 0, y: 0, z: 0}
--- !u!114 &3321675975489598489
MonoBehaviour:
  m_ObjectHideFlags: 0
  m_CorrespondingSourceObject: {fileID: 0}
  m_PrefabInstance: {fileID: 0}
  m_PrefabAsset: {fileID: 0}
  m_GameObject: {fileID: 3321675975489598503}
  m_Enabled: 1
  m_EditorHideFlags: 0
  m_Script: {fileID: 11500000, guid: 7048ad4199cecce469f088a86ba826c7, type: 3}
  m_Name: 
  m_EditorClassIdentifier: 
  rm: {fileID: 0}
  displayPrefab: {fileID: 3965045643058009890, guid: 1f396e3c7483d754985b84fb5e2cfa56,
    type: 3}
  geneDisplayPrefab: {fileID: 1945163285130823050, guid: 356c123c4d29bcb49aa5a2093daa76b7,
    type: 3}
  searchBar: {fileID: 0}
  KeyBoard: {fileID: 0}
  suggestions: []
  cromLengths: 
  searchDepth: 100000
